{
  "OrderNumber": 10011806010000000,
  "ParentOrderNumber": -1,
  "ParentOrderRef": null,
  "OrderId": "10011806010000000",
  "TransactionMode": "S",
  "PaymentMode": "T",
  "ReceiptMode": "PRN",
  "EntryDateTime": "2018-06-01T10:57:23.802-06:00",
  "Pos": {
    "StoreNumber": 3,
    "TillNulber": 1,
    "Alias": "S3T1",
    "CashierId": 1002956
  },
  "Cashier": {
    "CashierId": 1002956,
    "CashierType": "MANAGER",
    "CashierPartyId": "RusselA",
    "CashierName": "Russel Apu"
  },
  "Customer": null,
  "Items": [
    {
      "SeqId": 0,
      "ProductId": 10000577,
      "Sku": "2025",
      "InputProductCode": "2025",
      "ProductName": "Avocados Org",
      "DepartmentId": 60,
      "SubDepartmentId": 600,
      "CategoryId": 60065,
      "Unit": "ea",
      "IsMisc": false,
      "IsTaxable": false,
      "IsWeightProduct": false,
      "UnitCost": 0.720000,
      "UnitListPrice": 1.49,
      "UnitPromoPrice": null,
      "UnitSpecialPromoPrice": null,
      "UnitPackagePriceQuantityList": [],
      "UnitPackagePriceList": [],
      "UnitPromoPackagePriceQuantityList": [],
      "UnitPromoPackagePriceList": [],
      "UnitSelectedPrice": 1.49,
      "UnitFinalPrice": 1.49,
      "PriceRuleId": 0,
      "SelectedPriceType": "LIST_PRICE",
      "PriceClampType": null,
      "OverrideReason": null,
      "OverrideReportingCode": null,
      "OverrideDifference": null,
      "Quantity": 1,
      "EffectiveQuantity": 1,
      "DisplaySubTotal": 1.49,
      "Features": [],
      "ItemDiscount": null,
      "ItemPromos": [],
      "DistributedPromos": [],
      "DistributedSaleDiscount": null,
      "ValueCost": 0.72,
      "ValueListed": 1.49,
      "ValueSelected": 1.49,
      "ValueFinal": 1.49,
      "ManualDiscountItemLevel": 0.00,
      "PromoItemLevel": 0.00,
      "FeaturePreTax": 0.00,
      "FeaturePostTax": 0.00,
      "FeatureStd": 0.00,
      "FeatureTotal": 0.00
    }
  ],
  "SaleDiscount": null,
  "SalePromos": [],
  "Payments": [
    {
      "SeqId": 0,
      "TransactionType": "PAYMENT",
      "PaymentMethod": "CASH",
      "BillingAccountId": 0,
      "LocalCurrencyValue": 1.50,
      "OriginalCurrencyValue": 1.50,
      "OriginalCurrency": "CAD",
      "ReferenceNum": null,
      "CardCompanyId": null,
      "CardExpiry": null,
      "CardTransactionNumber": null,
      "CardInvoiceNum": 0,
      "CardSeqNum": 0,
      "CardApprovalCode": null,
      "CardResponseCode": "OK",
      "PinPadResponse": null,
      "PinPadReversalResponse": null,
      "TransactionStatus": "APPROVED",
      "IsManual": true,
      "IsAccepted": true
    }
  ],
  "SubTotal": 1.49,
  "Tax": 0.00,
  "GrandTotal": 1.49,
  "TenderChange": 0.00,
  "TenderRounding": -0.01,
  "GCRounding": 0.00,
  "TotalQuantity": 1,
  "TotalEffectiveQuantity": 1,
  "TotalCost": 0.72,
  "TotalPaid": 1.50,
  "TotalValueListed": 1.49,
  "TotalValueSelected": 1.49,
  "TotalValueFinal": 1.49,
  "TotalManualItemDiscount": 0,
  "TotalManualSaleDiscount": 0,
  "TotalManualDiscount": 0,
  "TotalItemPromo": 0.00,
  "TotalSalePromo": 0,
  "TotalPromo": 0.00,
  "TotalFeatureStd": 0.00,
  "TotalFeaturePreTax": 0.00,
  "TotalFeaturePostTax": 0.00,
  "TotalFeature": 0.00,
  "ItemVoidCount": 0,
  "History": [
    {
      "S": "KEY",
      "T": "additem",
      "V": "2025,10000577,1"
    },
    {
      "S": "KEY",
      "T": "pay",
      "V": "PURCHASE,1.50,CASH,1.50CAD,#NULL,#NULL,#NULL,#NULL,false,true,#NULL,#NULL"
    },
    {
      "S": "AUT",
      "T": "finalize",
      "V": null
    }
  ]
}